\contentsline {section}{Wst\k ep}{\relax \fontsize {10}{12}\selectfont \abovedisplayskip 10\p@ plus2\p@ minus5\p@ \abovedisplayshortskip \z@ plus3\p@ \belowdisplayshortskip 6\p@ plus3\p@ minus3\p@ \belowdisplayskip \abovedisplayskip 7}
\contentsline {section}{\numberline {1}Sensory IMU}{\relax \fontsize {10}{12}\selectfont \abovedisplayskip 10\p@ plus2\p@ minus5\p@ \abovedisplayshortskip \z@ plus3\p@ \belowdisplayshortskip 6\p@ plus3\p@ minus3\p@ \belowdisplayskip \abovedisplayskip 9}
\contentsline {subsection}{\numberline {1.1}\.Zyroskop}{\relax \fontsize {10}{12}\selectfont \abovedisplayskip 10\p@ plus2\p@ minus5\p@ \abovedisplayshortskip \z@ plus3\p@ \belowdisplayshortskip 6\p@ plus3\p@ minus3\p@ \belowdisplayskip \abovedisplayskip 9}
\contentsline {subsubsection}{\numberline {1.1.1}Zasada dzia\IeC {\l }ania \.zyroskopu}{\relax \fontsize {10}{12}\selectfont \abovedisplayskip 10\p@ plus2\p@ minus5\p@ \abovedisplayshortskip \z@ plus3\p@ \belowdisplayshortskip 6\p@ plus3\p@ minus3\p@ \belowdisplayskip \abovedisplayskip 9}
\contentsline {subsubsection}{\numberline {1.1.2}\.Zyroskop w formie uk\IeC {\l }adu scalonego MEMS}{\relax \fontsize {10}{12}\selectfont \abovedisplayskip 10\p@ plus2\p@ minus5\p@ \abovedisplayshortskip \z@ plus3\p@ \belowdisplayshortskip 6\p@ plus3\p@ minus3\p@ \belowdisplayskip \abovedisplayskip 11}
\contentsline {subsubsection}{\numberline {1.1.3}Por\'ownanie uk\IeC {\l }ad\'ow scalonych \.zyroskop\'ow dost\k epnych na rynku}{\relax \fontsize {10}{12}\selectfont \abovedisplayskip 10\p@ plus2\p@ minus5\p@ \abovedisplayshortskip \z@ plus3\p@ \belowdisplayshortskip 6\p@ plus3\p@ minus3\p@ \belowdisplayskip \abovedisplayskip 12}
\contentsline {subsection}{\numberline {1.2}Akcelerometr}{\relax \fontsize {10}{12}\selectfont \abovedisplayskip 10\p@ plus2\p@ minus5\p@ \abovedisplayshortskip \z@ plus3\p@ \belowdisplayshortskip 6\p@ plus3\p@ minus3\p@ \belowdisplayskip \abovedisplayskip 14}
\contentsline {subsubsection}{\numberline {1.2.1}Zasada dzia\IeC {\l }ania akcelerometru}{\relax \fontsize {10}{12}\selectfont \abovedisplayskip 10\p@ plus2\p@ minus5\p@ \abovedisplayshortskip \z@ plus3\p@ \belowdisplayshortskip 6\p@ plus3\p@ minus3\p@ \belowdisplayskip \abovedisplayskip 14}
\contentsline {subsubsection}{\numberline {1.2.2}Akcelerometr w formie uk\IeC {\l }adu scalonego MEMS}{\relax \fontsize {10}{12}\selectfont \abovedisplayskip 10\p@ plus2\p@ minus5\p@ \abovedisplayshortskip \z@ plus3\p@ \belowdisplayshortskip 6\p@ plus3\p@ minus3\p@ \belowdisplayskip \abovedisplayskip 14}
\contentsline {subsubsection}{\numberline {1.2.3}Por\'ownanie uk\IeC {\l }ad\'ow scalonych akcelerometr\'ow dost\k epnych na rynku}{\relax \fontsize {10}{12}\selectfont \abovedisplayskip 10\p@ plus2\p@ minus5\p@ \abovedisplayshortskip \z@ plus3\p@ \belowdisplayshortskip 6\p@ plus3\p@ minus3\p@ \belowdisplayskip \abovedisplayskip 16}
\contentsline {subsection}{\numberline {1.3}Magnetometr}{\relax \fontsize {10}{12}\selectfont \abovedisplayskip 10\p@ plus2\p@ minus5\p@ \abovedisplayshortskip \z@ plus3\p@ \belowdisplayshortskip 6\p@ plus3\p@ minus3\p@ \belowdisplayskip \abovedisplayskip 17}
\contentsline {section}{\numberline {2}Bezprzewodowy r\'oj sensor\'ow IMU}{\relax \fontsize {10}{12}\selectfont \abovedisplayskip 10\p@ plus2\p@ minus5\p@ \abovedisplayshortskip \z@ plus3\p@ \belowdisplayshortskip 6\p@ plus3\p@ minus3\p@ \belowdisplayskip \abovedisplayskip 19}
\contentsline {subsection}{\numberline {2.1}Satelitka}{\relax \fontsize {10}{12}\selectfont \abovedisplayskip 10\p@ plus2\p@ minus5\p@ \abovedisplayshortskip \z@ plus3\p@ \belowdisplayshortskip 6\p@ plus3\p@ minus3\p@ \belowdisplayskip \abovedisplayskip 20}
\contentsline {subsubsection}{\numberline {2.1.1}Arduino Pro mini}{\relax \fontsize {10}{12}\selectfont \abovedisplayskip 10\p@ plus2\p@ minus5\p@ \abovedisplayshortskip \z@ plus3\p@ \belowdisplayshortskip 6\p@ plus3\p@ minus3\p@ \belowdisplayskip \abovedisplayskip 20}
\contentsline {subsubsection}{\numberline {2.1.2}Modu\IeC {\l } radiowy nRF24l01+}{\relax \fontsize {10}{12}\selectfont \abovedisplayskip 10\p@ plus2\p@ minus5\p@ \abovedisplayshortskip \z@ plus3\p@ \belowdisplayshortskip 6\p@ plus3\p@ minus3\p@ \belowdisplayskip \abovedisplayskip 22}
\contentsline {subsubsection}{\numberline {2.1.3}IMU MPU-6050}{\relax \fontsize {10}{12}\selectfont \abovedisplayskip 10\p@ plus2\p@ minus5\p@ \abovedisplayshortskip \z@ plus3\p@ \belowdisplayshortskip 6\p@ plus3\p@ minus3\p@ \belowdisplayskip \abovedisplayskip 25}
\contentsline {subsubsection}{\numberline {2.1.4}Pozosta\IeC {\l }e elementy}{\relax \fontsize {10}{12}\selectfont \abovedisplayskip 10\p@ plus2\p@ minus5\p@ \abovedisplayshortskip \z@ plus3\p@ \belowdisplayshortskip 6\p@ plus3\p@ minus3\p@ \belowdisplayskip \abovedisplayskip 28}
\contentsline {subsection}{\numberline {2.2}Stacja bazowa}{\relax \fontsize {10}{12}\selectfont \abovedisplayskip 10\p@ plus2\p@ minus5\p@ \abovedisplayshortskip \z@ plus3\p@ \belowdisplayshortskip 6\p@ plus3\p@ minus3\p@ \belowdisplayskip \abovedisplayskip 31}
\contentsline {subsection}{\numberline {2.3}Prezentacja danych w \'srodowisku Processing}{\relax \fontsize {10}{12}\selectfont \abovedisplayskip 10\p@ plus2\p@ minus5\p@ \abovedisplayshortskip \z@ plus3\p@ \belowdisplayshortskip 6\p@ plus3\p@ minus3\p@ \belowdisplayskip \abovedisplayskip 33}
\contentsline {subsection}{\numberline {2.4}Poprzednia wersja satelitki}{\relax \fontsize {10}{12}\selectfont \abovedisplayskip 10\p@ plus2\p@ minus5\p@ \abovedisplayshortskip \z@ plus3\p@ \belowdisplayshortskip 6\p@ plus3\p@ minus3\p@ \belowdisplayskip \abovedisplayskip 34}
\contentsline {section}{\numberline {3}Przeprowadzone badania}{\relax \fontsize {10}{12}\selectfont \abovedisplayskip 10\p@ plus2\p@ minus5\p@ \abovedisplayshortskip \z@ plus3\p@ \belowdisplayshortskip 6\p@ plus3\p@ minus3\p@ \belowdisplayskip \abovedisplayskip 39}
\contentsline {subsection}{\numberline {3.1}Badanie zasi\k egu}{\relax \fontsize {10}{12}\selectfont \abovedisplayskip 10\p@ plus2\p@ minus5\p@ \abovedisplayshortskip \z@ plus3\p@ \belowdisplayshortskip 6\p@ plus3\p@ minus3\p@ \belowdisplayskip \abovedisplayskip 39}
\contentsline {subsection}{\numberline {3.2}Kalibracja urz\k adze\'n}{\relax \fontsize {10}{12}\selectfont \abovedisplayskip 10\p@ plus2\p@ minus5\p@ \abovedisplayshortskip \z@ plus3\p@ \belowdisplayshortskip 6\p@ plus3\p@ minus3\p@ \belowdisplayskip \abovedisplayskip 44}
\contentsline {subsection}{\numberline {3.3}Badanie por\'ownawcze - filtr komplementarny}{\relax \fontsize {10}{12}\selectfont \abovedisplayskip 10\p@ plus2\p@ minus5\p@ \abovedisplayshortskip \z@ plus3\p@ \belowdisplayshortskip 6\p@ plus3\p@ minus3\p@ \belowdisplayskip \abovedisplayskip 46}
\contentsline {section}{Podsumowanie i wnioski ko\'ncowe}{\relax \fontsize {10}{12}\selectfont \abovedisplayskip 10\p@ plus2\p@ minus5\p@ \abovedisplayshortskip \z@ plus3\p@ \belowdisplayshortskip 6\p@ plus3\p@ minus3\p@ \belowdisplayskip \abovedisplayskip 49}
\contentsline {section}{Za\IeC {\l }\k aczniki}{\relax \fontsize {10}{12}\selectfont \abovedisplayskip 10\p@ plus2\p@ minus5\p@ \abovedisplayshortskip \z@ plus3\p@ \belowdisplayshortskip 6\p@ plus3\p@ minus3\p@ \belowdisplayskip \abovedisplayskip 51}
\contentsline {section}{Literatura}{\relax \fontsize {10}{12}\selectfont \abovedisplayskip 10\p@ plus2\p@ minus5\p@ \abovedisplayshortskip \z@ plus3\p@ \belowdisplayshortskip 6\p@ plus3\p@ minus3\p@ \belowdisplayskip \abovedisplayskip 53}
