\relax 
\citation{imu_xsens}
\citation{11dof}
\citation{v2rocket}
\citation{vonBraun}
\@writefile{toc}{\contentsline {section}{Wst\k ep}{\relax \fontsize  {10}{12}\selectfont  \abovedisplayskip 10\p@ plus2\p@ minus5\p@ \abovedisplayshortskip \z@ plus3\p@ \belowdisplayshortskip 6\p@ plus3\p@ minus3\p@ \belowdisplayskip \abovedisplayskip 7}}
\citation{MPU-6050_karta}
\citation{gyro_brit}
\citation{fizyka}
\citation{zzmp}
\citation{zzmp_exp}
\@writefile{toc}{\contentsline {section}{\numberline {1}Sensory IMU}{\relax \fontsize  {10}{12}\selectfont  \abovedisplayskip 10\p@ plus2\p@ minus5\p@ \abovedisplayshortskip \z@ plus3\p@ \belowdisplayshortskip 6\p@ plus3\p@ minus3\p@ \belowdisplayskip \abovedisplayskip 9}}
\@writefile{toc}{\contentsline {subsection}{\numberline {1.1}\.Zyroskop}{\relax \fontsize  {10}{12}\selectfont  \abovedisplayskip 10\p@ plus2\p@ minus5\p@ \abovedisplayshortskip \z@ plus3\p@ \belowdisplayshortskip 6\p@ plus3\p@ minus3\p@ \belowdisplayskip \abovedisplayskip 9}}
\@writefile{toc}{\contentsline {subsubsection}{\numberline {1.1.1}Zasada dzia\IeC {\l }ania \.zyroskopu}{\relax \fontsize  {10}{12}\selectfont  \abovedisplayskip 10\p@ plus2\p@ minus5\p@ \abovedisplayshortskip \z@ plus3\p@ \belowdisplayshortskip 6\p@ plus3\p@ minus3\p@ \belowdisplayskip \abovedisplayskip 9}}
\newlabel{Eq:zz_moment_pedu}{{1.1}{\relax \fontsize  {10}{12}\selectfont  \abovedisplayskip 10\p@ plus2\p@ minus5\p@ \abovedisplayshortskip \z@ plus3\p@ \belowdisplayshortskip 6\p@ plus3\p@ minus3\p@ \belowdisplayskip \abovedisplayskip 9}}
\newlabel{Eq:moment_pedu}{{1.2}{\relax \fontsize  {10}{12}\selectfont  \abovedisplayskip 10\p@ plus2\p@ minus5\p@ \abovedisplayshortskip \z@ plus3\p@ \belowdisplayshortskip 6\p@ plus3\p@ minus3\p@ \belowdisplayskip \abovedisplayskip 9}}
\citation{gyro_brit}
\citation{horyzont_pilot}
\@writefile{lof}{\contentsline {figure}{\numberline {1.1.}{\ignorespaces Model \.zyroskopu}}{\relax \fontsize  {10}{12}\selectfont  \abovedisplayskip 10\p@ plus2\p@ minus5\p@ \abovedisplayshortskip \z@ plus3\p@ \belowdisplayshortskip 6\p@ plus3\p@ minus3\p@ \belowdisplayskip \abovedisplayskip 10}}
\newlabel{Fig:gyro}{{1.1}{\relax \fontsize  {10}{12}\selectfont  \abovedisplayskip 10\p@ plus2\p@ minus5\p@ \abovedisplayshortskip \z@ plus3\p@ \belowdisplayshortskip 6\p@ plus3\p@ minus3\p@ \belowdisplayskip \abovedisplayskip 10}}
\@writefile{lof}{\contentsline {figure}{\numberline {1.2.}{\ignorespaces B\k ak - dzieci\k eca zabawka, przedstawiaj\k aca zasad\k e zachowania momentu p\k edu}}{\relax \fontsize  {10}{12}\selectfont  \abovedisplayskip 10\p@ plus2\p@ minus5\p@ \abovedisplayshortskip \z@ plus3\p@ \belowdisplayshortskip 6\p@ plus3\p@ minus3\p@ \belowdisplayskip \abovedisplayskip 10}}
\newlabel{Fig:bak}{{1.2}{\relax \fontsize  {10}{12}\selectfont  \abovedisplayskip 10\p@ plus2\p@ minus5\p@ \abovedisplayshortskip \z@ plus3\p@ \belowdisplayshortskip 6\p@ plus3\p@ minus3\p@ \belowdisplayskip \abovedisplayskip 10}}
\citation{mems_ws}
\citation{MPU-6050_karta}
\citation{coriolis_vid}
\citation{imu_video}
\citation{imu_video}
\citation{imu_video}
\@writefile{lof}{\contentsline {figure}{\numberline {1.3.}{\ignorespaces Sztuczny horyzont w samolocie}}{\relax \fontsize  {10}{12}\selectfont  \abovedisplayskip 10\p@ plus2\p@ minus5\p@ \abovedisplayshortskip \z@ plus3\p@ \belowdisplayshortskip 6\p@ plus3\p@ minus3\p@ \belowdisplayskip \abovedisplayskip 11}}
\newlabel{Fig:ar_horizon}{{1.3}{\relax \fontsize  {10}{12}\selectfont  \abovedisplayskip 10\p@ plus2\p@ minus5\p@ \abovedisplayshortskip \z@ plus3\p@ \belowdisplayshortskip 6\p@ plus3\p@ minus3\p@ \belowdisplayskip \abovedisplayskip 11}}
\@writefile{toc}{\contentsline {subsubsection}{\numberline {1.1.2}\.Zyroskop w formie uk\IeC {\l }adu scalonego MEMS}{\relax \fontsize  {10}{12}\selectfont  \abovedisplayskip 10\p@ plus2\p@ minus5\p@ \abovedisplayshortskip \z@ plus3\p@ \belowdisplayshortskip 6\p@ plus3\p@ minus3\p@ \belowdisplayskip \abovedisplayskip 11}}
\newlabel{sub_gyro}{{1.1.2}{\relax \fontsize  {10}{12}\selectfont  \abovedisplayskip 10\p@ plus2\p@ minus5\p@ \abovedisplayshortskip \z@ plus3\p@ \belowdisplayshortskip 6\p@ plus3\p@ minus3\p@ \belowdisplayskip \abovedisplayskip 11}}
\@writefile{lof}{\contentsline {figure}{\numberline {1.4.}{\ignorespaces Czujnik inercyjny MPU-6050}}{\relax \fontsize  {10}{12}\selectfont  \abovedisplayskip 10\p@ plus2\p@ minus5\p@ \abovedisplayshortskip \z@ plus3\p@ \belowdisplayshortskip 6\p@ plus3\p@ minus3\p@ \belowdisplayskip \abovedisplayskip 11}}
\newlabel{Fig:mpu6050}{{1.4}{\relax \fontsize  {10}{12}\selectfont  \abovedisplayskip 10\p@ plus2\p@ minus5\p@ \abovedisplayshortskip \z@ plus3\p@ \belowdisplayshortskip 6\p@ plus3\p@ minus3\p@ \belowdisplayskip \abovedisplayskip 11}}
\citation{mega328_karta}
\citation{MPU-6050_karta}
\citation{L3GD20_karta}
\citation{LYPR540AH_karta}
\@writefile{lof}{\contentsline {figure}{\numberline {1.5.}{\ignorespaces Mikrouk\IeC {\l }ad elektromechaniczny trzyosiowego \.zyroskopu \cite  {imu_video}}}{\relax \fontsize  {10}{12}\selectfont  \abovedisplayskip 10\p@ plus2\p@ minus5\p@ \abovedisplayshortskip \z@ plus3\p@ \belowdisplayshortskip 6\p@ plus3\p@ minus3\p@ \belowdisplayskip \abovedisplayskip 12}}
\newlabel{Fig:mems_gyro}{{1.5}{\relax \fontsize  {10}{12}\selectfont  \abovedisplayskip 10\p@ plus2\p@ minus5\p@ \abovedisplayshortskip \z@ plus3\p@ \belowdisplayshortskip 6\p@ plus3\p@ minus3\p@ \belowdisplayskip \abovedisplayskip 12}}
\@writefile{toc}{\contentsline {subsubsection}{\numberline {1.1.3}Por\'ownanie uk\IeC {\l }ad\'ow scalonych \.zyroskop\'ow dost\k epnych na rynku}{\relax \fontsize  {10}{12}\selectfont  \abovedisplayskip 10\p@ plus2\p@ minus5\p@ \abovedisplayshortskip \z@ plus3\p@ \belowdisplayshortskip 6\p@ plus3\p@ minus3\p@ \belowdisplayskip \abovedisplayskip 12}}
\citation{fizyka}
\@writefile{lof}{\contentsline {figure}{\numberline {1.6.}{\ignorespaces Struktura wewn\k etrzna \.zyroskopu MEMS - przemieszczaj\k aca si\k e masa wp\IeC {\l }ywa na zmian\k e pojemno\'sci wewn\k atrz uk\IeC {\l }adu \cite  {imu_video}}}{\relax \fontsize  {10}{12}\selectfont  \abovedisplayskip 10\p@ plus2\p@ minus5\p@ \abovedisplayshortskip \z@ plus3\p@ \belowdisplayshortskip 6\p@ plus3\p@ minus3\p@ \belowdisplayskip \abovedisplayskip 13}}
\newlabel{Fig:mems_gyro_cap}{{1.6}{\relax \fontsize  {10}{12}\selectfont  \abovedisplayskip 10\p@ plus2\p@ minus5\p@ \abovedisplayshortskip \z@ plus3\p@ \belowdisplayshortskip 6\p@ plus3\p@ minus3\p@ \belowdisplayskip \abovedisplayskip 13}}
\@writefile{lot}{\contentsline {table}{\numberline {1.1.}{\ignorespaces Por\'ownanie parametr\'ow \.zyroskop\'ow MEMS}}{\relax \fontsize  {10}{12}\selectfont  \abovedisplayskip 10\p@ plus2\p@ minus5\p@ \abovedisplayshortskip \z@ plus3\p@ \belowdisplayshortskip 6\p@ plus3\p@ minus3\p@ \belowdisplayskip \abovedisplayskip 13}}
\newlabel{tab:gyro_por}{{1.1}{\relax \fontsize  {10}{12}\selectfont  \abovedisplayskip 10\p@ plus2\p@ minus5\p@ \abovedisplayshortskip \z@ plus3\p@ \belowdisplayshortskip 6\p@ plus3\p@ minus3\p@ \belowdisplayskip \abovedisplayskip 13}}
\citation{george_atwood_wiki}
\citation{imu_video}
\citation{fizyka}
\citation{imu_video}
\citation{abs_bosh}
\@writefile{toc}{\contentsline {subsection}{\numberline {1.2}Akcelerometr}{\relax \fontsize  {10}{12}\selectfont  \abovedisplayskip 10\p@ plus2\p@ minus5\p@ \abovedisplayshortskip \z@ plus3\p@ \belowdisplayshortskip 6\p@ plus3\p@ minus3\p@ \belowdisplayskip \abovedisplayskip 14}}
\@writefile{toc}{\contentsline {subsubsection}{\numberline {1.2.1}Zasada dzia\IeC {\l }ania akcelerometru}{\relax \fontsize  {10}{12}\selectfont  \abovedisplayskip 10\p@ plus2\p@ minus5\p@ \abovedisplayshortskip \z@ plus3\p@ \belowdisplayshortskip 6\p@ plus3\p@ minus3\p@ \belowdisplayskip \abovedisplayskip 14}}
\newlabel{Eq:2zdN}{{1.3}{\relax \fontsize  {10}{12}\selectfont  \abovedisplayskip 10\p@ plus2\p@ minus5\p@ \abovedisplayshortskip \z@ plus3\p@ \belowdisplayshortskip 6\p@ plus3\p@ minus3\p@ \belowdisplayskip \abovedisplayskip 14}}
\newlabel{Eq:2zdNprzysp}{{1.4}{\relax \fontsize  {10}{12}\selectfont  \abovedisplayskip 10\p@ plus2\p@ minus5\p@ \abovedisplayshortskip \z@ plus3\p@ \belowdisplayshortskip 6\p@ plus3\p@ minus3\p@ \belowdisplayskip \abovedisplayskip 14}}
\@writefile{toc}{\contentsline {subsubsection}{\numberline {1.2.2}Akcelerometr w formie uk\IeC {\l }adu scalonego MEMS}{\relax \fontsize  {10}{12}\selectfont  \abovedisplayskip 10\p@ plus2\p@ minus5\p@ \abovedisplayshortskip \z@ plus3\p@ \belowdisplayshortskip 6\p@ plus3\p@ minus3\p@ \belowdisplayskip \abovedisplayskip 14}}
\@writefile{lof}{\contentsline {figure}{\numberline {1.7.}{\ignorespaces Schemat pogl\k adowy warstwy mechanicznej akcelerometru MEMS \cite  {imu_video}}}{\relax \fontsize  {10}{12}\selectfont  \abovedisplayskip 10\p@ plus2\p@ minus5\p@ \abovedisplayshortskip \z@ plus3\p@ \belowdisplayshortskip 6\p@ plus3\p@ minus3\p@ \belowdisplayskip \abovedisplayskip 15}}
\newlabel{Fig:mems_acc_cap}{{1.7}{\relax \fontsize  {10}{12}\selectfont  \abovedisplayskip 10\p@ plus2\p@ minus5\p@ \abovedisplayshortskip \z@ plus3\p@ \belowdisplayshortskip 6\p@ plus3\p@ minus3\p@ \belowdisplayskip \abovedisplayskip 15}}
\@writefile{lof}{\contentsline {figure}{\numberline {1.8.}{\ignorespaces Trzyosiowy akcelerometr z zaznaczonymi zwrotami i kierunkami wykrywanych przy\'spiesze\'n}}{\relax \fontsize  {10}{12}\selectfont  \abovedisplayskip 10\p@ plus2\p@ minus5\p@ \abovedisplayshortskip \z@ plus3\p@ \belowdisplayshortskip 6\p@ plus3\p@ minus3\p@ \belowdisplayskip \abovedisplayskip 15}}
\newlabel{Fig:mems_acc}{{1.8}{\relax \fontsize  {10}{12}\selectfont  \abovedisplayskip 10\p@ plus2\p@ minus5\p@ \abovedisplayshortskip \z@ plus3\p@ \belowdisplayshortskip 6\p@ plus3\p@ minus3\p@ \belowdisplayskip \abovedisplayskip 15}}
\citation{MPU-6050_karta}
\citation{LSM303_karta}
\citation{ADXL335_karta}
\citation{fizyka3}
\citation{busola_wiki}
\@writefile{toc}{\contentsline {subsubsection}{\numberline {1.2.3}Por\'ownanie uk\IeC {\l }ad\'ow scalonych akcelerometr\'ow dost\k epnych na rynku}{\relax \fontsize  {10}{12}\selectfont  \abovedisplayskip 10\p@ plus2\p@ minus5\p@ \abovedisplayshortskip \z@ plus3\p@ \belowdisplayshortskip 6\p@ plus3\p@ minus3\p@ \belowdisplayskip \abovedisplayskip 16}}
\@writefile{lot}{\contentsline {table}{\numberline {1.2.}{\ignorespaces Por\'ownanie parametr\'ow akcelerometr\'ow MEMS}}{\relax \fontsize  {10}{12}\selectfont  \abovedisplayskip 10\p@ plus2\p@ minus5\p@ \abovedisplayshortskip \z@ plus3\p@ \belowdisplayshortskip 6\p@ plus3\p@ minus3\p@ \belowdisplayskip \abovedisplayskip 16}}
\newlabel{tab:acc_por}{{1.2}{\relax \fontsize  {10}{12}\selectfont  \abovedisplayskip 10\p@ plus2\p@ minus5\p@ \abovedisplayshortskip \z@ plus3\p@ \belowdisplayshortskip 6\p@ plus3\p@ minus3\p@ \belowdisplayskip \abovedisplayskip 16}}
\citation{fizyka3}
\citation{imu_video}
\citation{imu_video}
\@writefile{toc}{\contentsline {subsection}{\numberline {1.3}Magnetometr}{\relax \fontsize  {10}{12}\selectfont  \abovedisplayskip 10\p@ plus2\p@ minus5\p@ \abovedisplayshortskip \z@ plus3\p@ \belowdisplayshortskip 6\p@ plus3\p@ minus3\p@ \belowdisplayskip \abovedisplayskip 17}}
\newlabel{Eq:ind_nat}{{1.5}{\relax \fontsize  {10}{12}\selectfont  \abovedisplayskip 10\p@ plus2\p@ minus5\p@ \abovedisplayshortskip \z@ plus3\p@ \belowdisplayshortskip 6\p@ plus3\p@ minus3\p@ \belowdisplayskip \abovedisplayskip 17}}
\@writefile{lof}{\contentsline {figure}{\numberline {1.9.}{\ignorespaces Zasada dzia\IeC {\l }ania magnetometr\'ow \cite  {imu_video}}}{\relax \fontsize  {10}{12}\selectfont  \abovedisplayskip 10\p@ plus2\p@ minus5\p@ \abovedisplayshortskip \z@ plus3\p@ \belowdisplayshortskip 6\p@ plus3\p@ minus3\p@ \belowdisplayskip \abovedisplayskip 18}}
\newlabel{Fig:mag_theory}{{1.9}{\relax \fontsize  {10}{12}\selectfont  \abovedisplayskip 10\p@ plus2\p@ minus5\p@ \abovedisplayshortskip \z@ plus3\p@ \belowdisplayshortskip 6\p@ plus3\p@ minus3\p@ \belowdisplayskip \abovedisplayskip 18}}
\@writefile{toc}{\contentsline {section}{\numberline {2}Bezprzewodowy r\'oj sensor\'ow IMU}{\relax \fontsize  {10}{12}\selectfont  \abovedisplayskip 10\p@ plus2\p@ minus5\p@ \abovedisplayshortskip \z@ plus3\p@ \belowdisplayshortskip 6\p@ plus3\p@ minus3\p@ \belowdisplayskip \abovedisplayskip 19}}
\newlabel{roj}{{2}{\relax \fontsize  {10}{12}\selectfont  \abovedisplayskip 10\p@ plus2\p@ minus5\p@ \abovedisplayshortskip \z@ plus3\p@ \belowdisplayshortskip 6\p@ plus3\p@ minus3\p@ \belowdisplayskip \abovedisplayskip 19}}
\@writefile{lof}{\contentsline {figure}{\numberline {2.10.}{\ignorespaces Schemat zaproponowanego rozwi\k azania}}{\relax \fontsize  {10}{12}\selectfont  \abovedisplayskip 10\p@ plus2\p@ minus5\p@ \abovedisplayshortskip \z@ plus3\p@ \belowdisplayshortskip 6\p@ plus3\p@ minus3\p@ \belowdisplayskip \abovedisplayskip 19}}
\newlabel{Fig:roj_schem}{{2.10}{\relax \fontsize  {10}{12}\selectfont  \abovedisplayskip 10\p@ plus2\p@ minus5\p@ \abovedisplayshortskip \z@ plus3\p@ \belowdisplayshortskip 6\p@ plus3\p@ minus3\p@ \belowdisplayskip \abovedisplayskip 19}}
\citation{promini_doc}
\citation{mega328_karta}
\@writefile{toc}{\contentsline {subsection}{\numberline {2.1}Satelitka}{\relax \fontsize  {10}{12}\selectfont  \abovedisplayskip 10\p@ plus2\p@ minus5\p@ \abovedisplayshortskip \z@ plus3\p@ \belowdisplayshortskip 6\p@ plus3\p@ minus3\p@ \belowdisplayskip \abovedisplayskip 20}}
\newlabel{satelite}{{2.1}{\relax \fontsize  {10}{12}\selectfont  \abovedisplayskip 10\p@ plus2\p@ minus5\p@ \abovedisplayshortskip \z@ plus3\p@ \belowdisplayshortskip 6\p@ plus3\p@ minus3\p@ \belowdisplayskip \abovedisplayskip 20}}
\@writefile{toc}{\contentsline {subsubsection}{\numberline {2.1.1}Arduino Pro mini}{\relax \fontsize  {10}{12}\selectfont  \abovedisplayskip 10\p@ plus2\p@ minus5\p@ \abovedisplayshortskip \z@ plus3\p@ \belowdisplayshortskip 6\p@ plus3\p@ minus3\p@ \belowdisplayskip \abovedisplayskip 20}}
\newlabel{ArduProMini}{{2.1.1}{\relax \fontsize  {10}{12}\selectfont  \abovedisplayskip 10\p@ plus2\p@ minus5\p@ \abovedisplayshortskip \z@ plus3\p@ \belowdisplayshortskip 6\p@ plus3\p@ minus3\p@ \belowdisplayskip \abovedisplayskip 20}}
\@writefile{lof}{\contentsline {figure}{\numberline {2.11.}{\ignorespaces Modu\IeC {\l } Arduino Pro mini}}{\relax \fontsize  {10}{12}\selectfont  \abovedisplayskip 10\p@ plus2\p@ minus5\p@ \abovedisplayshortskip \z@ plus3\p@ \belowdisplayshortskip 6\p@ plus3\p@ minus3\p@ \belowdisplayskip \abovedisplayskip 21}}
\newlabel{Fig:pro_mini}{{2.11}{\relax \fontsize  {10}{12}\selectfont  \abovedisplayskip 10\p@ plus2\p@ minus5\p@ \abovedisplayshortskip \z@ plus3\p@ \belowdisplayshortskip 6\p@ plus3\p@ minus3\p@ \belowdisplayskip \abovedisplayskip 21}}
\@writefile{lof}{\contentsline {figure}{\numberline {2.12.}{\ignorespaces Schemat pod\IeC {\l }\k acze\'n peryferi\'ow satelitki do Arduino Pro mini}}{\relax \fontsize  {10}{12}\selectfont  \abovedisplayskip 10\p@ plus2\p@ minus5\p@ \abovedisplayshortskip \z@ plus3\p@ \belowdisplayshortskip 6\p@ plus3\p@ minus3\p@ \belowdisplayskip \abovedisplayskip 21}}
\newlabel{Fig:pro_mini_app}{{2.12}{\relax \fontsize  {10}{12}\selectfont  \abovedisplayskip 10\p@ plus2\p@ minus5\p@ \abovedisplayshortskip \z@ plus3\p@ \belowdisplayshortskip 6\p@ plus3\p@ minus3\p@ \belowdisplayskip \abovedisplayskip 21}}
\citation{nrf_karta}
\citation{nrf_karta}
\@writefile{toc}{\contentsline {subsubsection}{\numberline {2.1.2}Modu\IeC {\l } radiowy nRF24l01+}{\relax \fontsize  {10}{12}\selectfont  \abovedisplayskip 10\p@ plus2\p@ minus5\p@ \abovedisplayshortskip \z@ plus3\p@ \belowdisplayshortskip 6\p@ plus3\p@ minus3\p@ \belowdisplayskip \abovedisplayskip 22}}
\newlabel{nrf24}{{2.1.2}{\relax \fontsize  {10}{12}\selectfont  \abovedisplayskip 10\p@ plus2\p@ minus5\p@ \abovedisplayshortskip \z@ plus3\p@ \belowdisplayshortskip 6\p@ plus3\p@ minus3\p@ \belowdisplayskip \abovedisplayskip 22}}
\@writefile{lof}{\contentsline {figure}{\numberline {2.13.}{\ignorespaces a) Schemat pod\IeC {\l }\k acze\'n do Arduino Pro mini, b) Schemat \'scie\.zek na module nRF24l01+}}{\relax \fontsize  {10}{12}\selectfont  \abovedisplayskip 10\p@ plus2\p@ minus5\p@ \abovedisplayshortskip \z@ plus3\p@ \belowdisplayshortskip 6\p@ plus3\p@ minus3\p@ \belowdisplayskip \abovedisplayskip 23}}
\newlabel{Fig:nrf_app}{{2.13}{\relax \fontsize  {10}{12}\selectfont  \abovedisplayskip 10\p@ plus2\p@ minus5\p@ \abovedisplayshortskip \z@ plus3\p@ \belowdisplayshortskip 6\p@ plus3\p@ minus3\p@ \belowdisplayskip \abovedisplayskip 23}}
\@writefile{lof}{\contentsline {figure}{\numberline {2.14.}{\ignorespaces Adresowanie gniazd uk\IeC {\l }adu nRF24l01+ \cite  {nrf_karta}}}{\relax \fontsize  {10}{12}\selectfont  \abovedisplayskip 10\p@ plus2\p@ minus5\p@ \abovedisplayshortskip \z@ plus3\p@ \belowdisplayshortskip 6\p@ plus3\p@ minus3\p@ \belowdisplayskip \abovedisplayskip 23}}
\newlabel{Fig:nrf_addr}{{2.14}{\relax \fontsize  {10}{12}\selectfont  \abovedisplayskip 10\p@ plus2\p@ minus5\p@ \abovedisplayshortskip \z@ plus3\p@ \belowdisplayshortskip 6\p@ plus3\p@ minus3\p@ \belowdisplayskip \abovedisplayskip 23}}
\citation{nrf_karta}
\citation{nrf_karta}
\@writefile{lof}{\contentsline {figure}{\numberline {2.15.}{\ignorespaces Pakiet przesy\IeC {\l }any przez nRF24l01+ \cite  {nrf_karta}}}{\relax \fontsize  {10}{12}\selectfont  \abovedisplayskip 10\p@ plus2\p@ minus5\p@ \abovedisplayshortskip \z@ plus3\p@ \belowdisplayshortskip 6\p@ plus3\p@ minus3\p@ \belowdisplayskip \abovedisplayskip 24}}
\newlabel{Fig:nrf_packet}{{2.15}{\relax \fontsize  {10}{12}\selectfont  \abovedisplayskip 10\p@ plus2\p@ minus5\p@ \abovedisplayshortskip \z@ plus3\p@ \belowdisplayshortskip 6\p@ plus3\p@ minus3\p@ \belowdisplayskip \abovedisplayskip 24}}
\citation{MPU-6050_karta}
\citation{MPU-6050_karta}
\@writefile{lof}{\contentsline {figure}{\numberline {2.16.}{\ignorespaces Pojedyncza transakcja z potwierdzeniem odbioru \cite  {nrf_karta}}}{\relax \fontsize  {10}{12}\selectfont  \abovedisplayskip 10\p@ plus2\p@ minus5\p@ \abovedisplayshortskip \z@ plus3\p@ \belowdisplayshortskip 6\p@ plus3\p@ minus3\p@ \belowdisplayskip \abovedisplayskip 25}}
\newlabel{Fig:ack_pransmitt}{{2.16}{\relax \fontsize  {10}{12}\selectfont  \abovedisplayskip 10\p@ plus2\p@ minus5\p@ \abovedisplayshortskip \z@ plus3\p@ \belowdisplayshortskip 6\p@ plus3\p@ minus3\p@ \belowdisplayskip \abovedisplayskip 25}}
\@writefile{toc}{\contentsline {subsubsection}{\numberline {2.1.3}IMU MPU-6050}{\relax \fontsize  {10}{12}\selectfont  \abovedisplayskip 10\p@ plus2\p@ minus5\p@ \abovedisplayshortskip \z@ plus3\p@ \belowdisplayshortskip 6\p@ plus3\p@ minus3\p@ \belowdisplayskip \abovedisplayskip 25}}
\@writefile{lof}{\contentsline {figure}{\numberline {2.17.}{\ignorespaces Aplikacja modu\IeC {\l }u z uk\IeC {\l }adem scalonym MPU-6050}}{\relax \fontsize  {10}{12}\selectfont  \abovedisplayskip 10\p@ plus2\p@ minus5\p@ \abovedisplayshortskip \z@ plus3\p@ \belowdisplayshortskip 6\p@ plus3\p@ minus3\p@ \belowdisplayskip \abovedisplayskip 26}}
\newlabel{Fig:mpu_app}{{2.17}{\relax \fontsize  {10}{12}\selectfont  \abovedisplayskip 10\p@ plus2\p@ minus5\p@ \abovedisplayshortskip \z@ plus3\p@ \belowdisplayshortskip 6\p@ plus3\p@ minus3\p@ \belowdisplayskip \abovedisplayskip 26}}
\@writefile{lof}{\contentsline {figure}{\numberline {2.18.}{\ignorespaces Rejestry konfiguracyjne MPU-6050 okre\'slaj\k ace czu\IeC {\l }o\'s\'c uk\IeC {\l }adu \cite  {MPU-6050_karta}}}{\relax \fontsize  {10}{12}\selectfont  \abovedisplayskip 10\p@ plus2\p@ minus5\p@ \abovedisplayshortskip \z@ plus3\p@ \belowdisplayshortskip 6\p@ plus3\p@ minus3\p@ \belowdisplayskip \abovedisplayskip 26}}
\newlabel{Fig:mpu_reg_1}{{2.18}{\relax \fontsize  {10}{12}\selectfont  \abovedisplayskip 10\p@ plus2\p@ minus5\p@ \abovedisplayshortskip \z@ plus3\p@ \belowdisplayshortskip 6\p@ plus3\p@ minus3\p@ \belowdisplayskip \abovedisplayskip 26}}
\citation{MPU-6050_karta}
\citation{MPU-6050_karta}
\newlabel{Eq:acc_out_u}{{2.6}{\relax \fontsize  {10}{12}\selectfont  \abovedisplayskip 10\p@ plus2\p@ minus5\p@ \abovedisplayshortskip \z@ plus3\p@ \belowdisplayshortskip 6\p@ plus3\p@ minus3\p@ \belowdisplayskip \abovedisplayskip 27}}
\newlabel{Eq:acc_out_s}{{2.7}{\relax \fontsize  {10}{12}\selectfont  \abovedisplayskip 10\p@ plus2\p@ minus5\p@ \abovedisplayshortskip \z@ plus3\p@ \belowdisplayshortskip 6\p@ plus3\p@ minus3\p@ \belowdisplayskip \abovedisplayskip 27}}
\newlabel{Eq:acc_out}{{2.8}{\relax \fontsize  {10}{12}\selectfont  \abovedisplayskip 10\p@ plus2\p@ minus5\p@ \abovedisplayshortskip \z@ plus3\p@ \belowdisplayshortskip 6\p@ plus3\p@ minus3\p@ \belowdisplayskip \abovedisplayskip 27}}
\@writefile{lof}{\contentsline {figure}{\numberline {2.19.}{\ignorespaces Rejestry wyj\'sciowe akcelerometru MPU-6050 wraz z przelicznikiem zale\.znym od czu\IeC {\l }o\'sci \cite  {MPU-6050_karta}}}{\relax \fontsize  {10}{12}\selectfont  \abovedisplayskip 10\p@ plus2\p@ minus5\p@ \abovedisplayshortskip \z@ plus3\p@ \belowdisplayshortskip 6\p@ plus3\p@ minus3\p@ \belowdisplayskip \abovedisplayskip 27}}
\newlabel{Fig:mpu_acc_out}{{2.19}{\relax \fontsize  {10}{12}\selectfont  \abovedisplayskip 10\p@ plus2\p@ minus5\p@ \abovedisplayshortskip \z@ plus3\p@ \belowdisplayshortskip 6\p@ plus3\p@ minus3\p@ \belowdisplayskip \abovedisplayskip 27}}
\@writefile{lof}{\contentsline {figure}{\numberline {2.20.}{\ignorespaces Rejestry wyj\'sciowe \.zyroskopu MPU-6050 wraz z przelicznikiem zale\.znym od czu\IeC {\l }o\'sci \cite  {MPU-6050_karta}}}{\relax \fontsize  {10}{12}\selectfont  \abovedisplayskip 10\p@ plus2\p@ minus5\p@ \abovedisplayshortskip \z@ plus3\p@ \belowdisplayshortskip 6\p@ plus3\p@ minus3\p@ \belowdisplayskip \abovedisplayskip 27}}
\newlabel{Fig:mpu_gyro_out}{{2.20}{\relax \fontsize  {10}{12}\selectfont  \abovedisplayskip 10\p@ plus2\p@ minus5\p@ \abovedisplayshortskip \z@ plus3\p@ \belowdisplayshortskip 6\p@ plus3\p@ minus3\p@ \belowdisplayskip \abovedisplayskip 27}}
\citation{torex_karta}
\citation{dzielnik_strona}
\@writefile{toc}{\contentsline {subsubsection}{\numberline {2.1.4}Pozosta\IeC {\l }e elementy}{\relax \fontsize  {10}{12}\selectfont  \abovedisplayskip 10\p@ plus2\p@ minus5\p@ \abovedisplayshortskip \z@ plus3\p@ \belowdisplayshortskip 6\p@ plus3\p@ minus3\p@ \belowdisplayskip \abovedisplayskip 28}}
\@writefile{lof}{\contentsline {figure}{\numberline {2.21.}{\ignorespaces Aplikacja regulatora napi\k ecia}}{\relax \fontsize  {10}{12}\selectfont  \abovedisplayskip 10\p@ plus2\p@ minus5\p@ \abovedisplayshortskip \z@ plus3\p@ \belowdisplayshortskip 6\p@ plus3\p@ minus3\p@ \belowdisplayskip \abovedisplayskip 28}}
\newlabel{Fig:volt_reg}{{2.21}{\relax \fontsize  {10}{12}\selectfont  \abovedisplayskip 10\p@ plus2\p@ minus5\p@ \abovedisplayshortskip \z@ plus3\p@ \belowdisplayshortskip 6\p@ plus3\p@ minus3\p@ \belowdisplayskip \abovedisplayskip 28}}
\newlabel{Eq:vold_div_eq}{{2.9}{\relax \fontsize  {10}{12}\selectfont  \abovedisplayskip 10\p@ plus2\p@ minus5\p@ \abovedisplayshortskip \z@ plus3\p@ \belowdisplayshortskip 6\p@ plus3\p@ minus3\p@ \belowdisplayskip \abovedisplayskip 28}}
\newlabel{Eq:vold_div_eq33}{{2.10}{\relax \fontsize  {10}{12}\selectfont  \abovedisplayskip 10\p@ plus2\p@ minus5\p@ \abovedisplayshortskip \z@ plus3\p@ \belowdisplayshortskip 6\p@ plus3\p@ minus3\p@ \belowdisplayskip \abovedisplayskip 28}}
\citation{lipo_forbot}
\@writefile{lof}{\contentsline {figure}{\numberline {2.22.}{\ignorespaces Dzielnik napi\k ecia}}{\relax \fontsize  {10}{12}\selectfont  \abovedisplayskip 10\p@ plus2\p@ minus5\p@ \abovedisplayshortskip \z@ plus3\p@ \belowdisplayshortskip 6\p@ plus3\p@ minus3\p@ \belowdisplayskip \abovedisplayskip 29}}
\newlabel{Fig:volt_div}{{2.22}{\relax \fontsize  {10}{12}\selectfont  \abovedisplayskip 10\p@ plus2\p@ minus5\p@ \abovedisplayshortskip \z@ plus3\p@ \belowdisplayshortskip 6\p@ plus3\p@ minus3\p@ \belowdisplayskip \abovedisplayskip 29}}
\@writefile{lof}{\contentsline {figure}{\numberline {2.23.}{\ignorespaces LED RGB}}{\relax \fontsize  {10}{12}\selectfont  \abovedisplayskip 10\p@ plus2\p@ minus5\p@ \abovedisplayshortskip \z@ plus3\p@ \belowdisplayshortskip 6\p@ plus3\p@ minus3\p@ \belowdisplayskip \abovedisplayskip 29}}
\newlabel{Fig:led_rgb}{{2.23}{\relax \fontsize  {10}{12}\selectfont  \abovedisplayskip 10\p@ plus2\p@ minus5\p@ \abovedisplayshortskip \z@ plus3\p@ \belowdisplayshortskip 6\p@ plus3\p@ minus3\p@ \belowdisplayskip \abovedisplayskip 29}}
\citation{uno_doc}
\@writefile{lof}{\contentsline {figure}{\numberline {2.24.}{\ignorespaces Podstawka pod modu\IeC {\l }y satelitki}}{\relax \fontsize  {10}{12}\selectfont  \abovedisplayskip 10\p@ plus2\p@ minus5\p@ \abovedisplayshortskip \z@ plus3\p@ \belowdisplayshortskip 6\p@ plus3\p@ minus3\p@ \belowdisplayskip \abovedisplayskip 30}}
\newlabel{Fig:main}{{2.24}{\relax \fontsize  {10}{12}\selectfont  \abovedisplayskip 10\p@ plus2\p@ minus5\p@ \abovedisplayshortskip \z@ plus3\p@ \belowdisplayshortskip 6\p@ plus3\p@ minus3\p@ \belowdisplayskip \abovedisplayskip 30}}
\@writefile{lof}{\contentsline {figure}{\numberline {2.25.}{\ignorespaces \IeC {\L }adowarka i bateria w obudowie}}{\relax \fontsize  {10}{12}\selectfont  \abovedisplayskip 10\p@ plus2\p@ minus5\p@ \abovedisplayshortskip \z@ plus3\p@ \belowdisplayshortskip 6\p@ plus3\p@ minus3\p@ \belowdisplayskip \abovedisplayskip 30}}
\newlabel{Fig:charger}{{2.25}{\relax \fontsize  {10}{12}\selectfont  \abovedisplayskip 10\p@ plus2\p@ minus5\p@ \abovedisplayshortskip \z@ plus3\p@ \belowdisplayshortskip 6\p@ plus3\p@ minus3\p@ \belowdisplayskip \abovedisplayskip 30}}
\@writefile{lof}{\contentsline {figure}{\numberline {2.26.}{\ignorespaces Finalna realizacja satelitek}}{\relax \fontsize  {10}{12}\selectfont  \abovedisplayskip 10\p@ plus2\p@ minus5\p@ \abovedisplayshortskip \z@ plus3\p@ \belowdisplayshortskip 6\p@ plus3\p@ minus3\p@ \belowdisplayskip \abovedisplayskip 31}}
\newlabel{Fig:5sat}{{2.26}{\relax \fontsize  {10}{12}\selectfont  \abovedisplayskip 10\p@ plus2\p@ minus5\p@ \abovedisplayshortskip \z@ plus3\p@ \belowdisplayshortskip 6\p@ plus3\p@ minus3\p@ \belowdisplayskip \abovedisplayskip 31}}
\@writefile{lof}{\contentsline {figure}{\numberline {2.27.}{\ignorespaces Schemat blokowy algorytmu dzia\IeC {\l }ania satelitki}}{\relax \fontsize  {10}{12}\selectfont  \abovedisplayskip 10\p@ plus2\p@ minus5\p@ \abovedisplayshortskip \z@ plus3\p@ \belowdisplayshortskip 6\p@ plus3\p@ minus3\p@ \belowdisplayskip \abovedisplayskip 31}}
\newlabel{Fig:satelite_alg}{{2.27}{\relax \fontsize  {10}{12}\selectfont  \abovedisplayskip 10\p@ plus2\p@ minus5\p@ \abovedisplayshortskip \z@ plus3\p@ \belowdisplayshortskip 6\p@ plus3\p@ minus3\p@ \belowdisplayskip \abovedisplayskip 31}}
\@writefile{toc}{\contentsline {subsection}{\numberline {2.2}Stacja bazowa}{\relax \fontsize  {10}{12}\selectfont  \abovedisplayskip 10\p@ plus2\p@ minus5\p@ \abovedisplayshortskip \z@ plus3\p@ \belowdisplayshortskip 6\p@ plus3\p@ minus3\p@ \belowdisplayskip \abovedisplayskip 31}}
\newlabel{base}{{2.2}{\relax \fontsize  {10}{12}\selectfont  \abovedisplayskip 10\p@ plus2\p@ minus5\p@ \abovedisplayshortskip \z@ plus3\p@ \belowdisplayshortskip 6\p@ plus3\p@ minus3\p@ \belowdisplayskip \abovedisplayskip 31}}
\@writefile{lof}{\contentsline {figure}{\numberline {2.28.}{\ignorespaces Schemat stacji bazowej}}{\relax \fontsize  {10}{12}\selectfont  \abovedisplayskip 10\p@ plus2\p@ minus5\p@ \abovedisplayshortskip \z@ plus3\p@ \belowdisplayshortskip 6\p@ plus3\p@ minus3\p@ \belowdisplayskip \abovedisplayskip 32}}
\newlabel{Fig:base_sch}{{2.28}{\relax \fontsize  {10}{12}\selectfont  \abovedisplayskip 10\p@ plus2\p@ minus5\p@ \abovedisplayshortskip \z@ plus3\p@ \belowdisplayshortskip 6\p@ plus3\p@ minus3\p@ \belowdisplayskip \abovedisplayskip 32}}
\citation{vis}
\@writefile{lof}{\contentsline {figure}{\numberline {2.29.}{\ignorespaces Schemat blokowy algorytmu dzia\IeC {\l }ania stacji bazowej}}{\relax \fontsize  {10}{12}\selectfont  \abovedisplayskip 10\p@ plus2\p@ minus5\p@ \abovedisplayshortskip \z@ plus3\p@ \belowdisplayshortskip 6\p@ plus3\p@ minus3\p@ \belowdisplayskip \abovedisplayskip 33}}
\newlabel{Fig:base_alg}{{2.29}{\relax \fontsize  {10}{12}\selectfont  \abovedisplayskip 10\p@ plus2\p@ minus5\p@ \abovedisplayshortskip \z@ plus3\p@ \belowdisplayshortskip 6\p@ plus3\p@ minus3\p@ \belowdisplayskip \abovedisplayskip 33}}
\@writefile{lof}{\contentsline {figure}{\numberline {2.30.}{\ignorespaces Stacja bazowa w obudowie}}{\relax \fontsize  {10}{12}\selectfont  \abovedisplayskip 10\p@ plus2\p@ minus5\p@ \abovedisplayshortskip \z@ plus3\p@ \belowdisplayshortskip 6\p@ plus3\p@ minus3\p@ \belowdisplayskip \abovedisplayskip 33}}
\newlabel{Fig:base}{{2.30}{\relax \fontsize  {10}{12}\selectfont  \abovedisplayskip 10\p@ plus2\p@ minus5\p@ \abovedisplayshortskip \z@ plus3\p@ \belowdisplayshortskip 6\p@ plus3\p@ minus3\p@ \belowdisplayskip \abovedisplayskip 33}}
\@writefile{toc}{\contentsline {subsection}{\numberline {2.3}Prezentacja danych w \'srodowisku Processing}{\relax \fontsize  {10}{12}\selectfont  \abovedisplayskip 10\p@ plus2\p@ minus5\p@ \abovedisplayshortskip \z@ plus3\p@ \belowdisplayshortskip 6\p@ plus3\p@ minus3\p@ \belowdisplayskip \abovedisplayskip 33}}
\citation{f407_karta}
\citation{f042_karta}
\citation{lsm9ds0_karta}
\@writefile{lof}{\contentsline {figure}{\numberline {2.31.}{\ignorespaces Wizualizacja danych w \'srodowisku Processing}}{\relax \fontsize  {10}{12}\selectfont  \abovedisplayskip 10\p@ plus2\p@ minus5\p@ \abovedisplayshortskip \z@ plus3\p@ \belowdisplayshortskip 6\p@ plus3\p@ minus3\p@ \belowdisplayskip \abovedisplayskip 34}}
\newlabel{Fig:vis_5nodes}{{2.31}{\relax \fontsize  {10}{12}\selectfont  \abovedisplayskip 10\p@ plus2\p@ minus5\p@ \abovedisplayshortskip \z@ plus3\p@ \belowdisplayshortskip 6\p@ plus3\p@ minus3\p@ \belowdisplayskip \abovedisplayskip 34}}
\@writefile{toc}{\contentsline {subsection}{\numberline {2.4}Poprzednia wersja satelitki}{\relax \fontsize  {10}{12}\selectfont  \abovedisplayskip 10\p@ plus2\p@ minus5\p@ \abovedisplayshortskip \z@ plus3\p@ \belowdisplayshortskip 6\p@ plus3\p@ minus3\p@ \belowdisplayskip \abovedisplayskip 34}}
\@writefile{lof}{\contentsline {figure}{\numberline {2.32.}{\ignorespaces Aplikacja mikrokontrolera STM32F042F6P6 w poprzedniej wersji satelitki}}{\relax \fontsize  {10}{12}\selectfont  \abovedisplayskip 10\p@ plus2\p@ minus5\p@ \abovedisplayshortskip \z@ plus3\p@ \belowdisplayshortskip 6\p@ plus3\p@ minus3\p@ \belowdisplayskip \abovedisplayskip 35}}
\newlabel{Fig:f0_sch}{{2.32}{\relax \fontsize  {10}{12}\selectfont  \abovedisplayskip 10\p@ plus2\p@ minus5\p@ \abovedisplayshortskip \z@ plus3\p@ \belowdisplayshortskip 6\p@ plus3\p@ minus3\p@ \belowdisplayskip \abovedisplayskip 35}}
\@writefile{lof}{\contentsline {figure}{\numberline {2.33.}{\ignorespaces Dziewi\k ecioosiowe IMU LSM9DS0 - cz\k e\'s\'c schematu pierwszej wersji satelitki}}{\relax \fontsize  {10}{12}\selectfont  \abovedisplayskip 10\p@ plus2\p@ minus5\p@ \abovedisplayshortskip \z@ plus3\p@ \belowdisplayshortskip 6\p@ plus3\p@ minus3\p@ \belowdisplayskip \abovedisplayskip 36}}
\newlabel{Fig:lsm9ds0_sch}{{2.33}{\relax \fontsize  {10}{12}\selectfont  \abovedisplayskip 10\p@ plus2\p@ minus5\p@ \abovedisplayshortskip \z@ plus3\p@ \belowdisplayshortskip 6\p@ plus3\p@ minus3\p@ \belowdisplayskip \abovedisplayskip 36}}
\@writefile{lof}{\contentsline {figure}{\numberline {2.34.}{\ignorespaces Z\IeC {\l }\k acze programatora, zewn\k etrzny oscylator kwarcowy i uk\IeC {\l }ad resetu pierwszej wersji satelitki}}{\relax \fontsize  {10}{12}\selectfont  \abovedisplayskip 10\p@ plus2\p@ minus5\p@ \abovedisplayshortskip \z@ plus3\p@ \belowdisplayshortskip 6\p@ plus3\p@ minus3\p@ \belowdisplayskip \abovedisplayskip 36}}
\newlabel{Fig:f0_aux_sch}{{2.34}{\relax \fontsize  {10}{12}\selectfont  \abovedisplayskip 10\p@ plus2\p@ minus5\p@ \abovedisplayshortskip \z@ plus3\p@ \belowdisplayshortskip 6\p@ plus3\p@ minus3\p@ \belowdisplayskip \abovedisplayskip 36}}
\@writefile{lof}{\contentsline {figure}{\numberline {2.35.}{\ignorespaces Schemat \'scie\.zek poprzedniej wersji satelitki}}{\relax \fontsize  {10}{12}\selectfont  \abovedisplayskip 10\p@ plus2\p@ minus5\p@ \abovedisplayshortskip \z@ plus3\p@ \belowdisplayshortskip 6\p@ plus3\p@ minus3\p@ \belowdisplayskip \abovedisplayskip 37}}
\newlabel{Fig:f0_brd}{{2.35}{\relax \fontsize  {10}{12}\selectfont  \abovedisplayskip 10\p@ plus2\p@ minus5\p@ \abovedisplayshortskip \z@ plus3\p@ \belowdisplayshortskip 6\p@ plus3\p@ minus3\p@ \belowdisplayskip \abovedisplayskip 37}}
\@writefile{lof}{\contentsline {figure}{\numberline {2.36.}{\ignorespaces Pierwsza wersja satelitki}}{\relax \fontsize  {10}{12}\selectfont  \abovedisplayskip 10\p@ plus2\p@ minus5\p@ \abovedisplayshortskip \z@ plus3\p@ \belowdisplayshortskip 6\p@ plus3\p@ minus3\p@ \belowdisplayskip \abovedisplayskip 37}}
\newlabel{Fig:sat_v1}{{2.36}{\relax \fontsize  {10}{12}\selectfont  \abovedisplayskip 10\p@ plus2\p@ minus5\p@ \abovedisplayshortskip \z@ plus3\p@ \belowdisplayshortskip 6\p@ plus3\p@ minus3\p@ \belowdisplayskip \abovedisplayskip 37}}
\@writefile{toc}{\contentsline {section}{\numberline {3}Przeprowadzone badania}{\relax \fontsize  {10}{12}\selectfont  \abovedisplayskip 10\p@ plus2\p@ minus5\p@ \abovedisplayshortskip \z@ plus3\p@ \belowdisplayshortskip 6\p@ plus3\p@ minus3\p@ \belowdisplayskip \abovedisplayskip 39}}
\@writefile{toc}{\contentsline {subsection}{\numberline {3.1}Badanie zasi\k egu}{\relax \fontsize  {10}{12}\selectfont  \abovedisplayskip 10\p@ plus2\p@ minus5\p@ \abovedisplayshortskip \z@ plus3\p@ \belowdisplayshortskip 6\p@ plus3\p@ minus3\p@ \belowdisplayskip \abovedisplayskip 39}}
\@writefile{lof}{\contentsline {figure}{\numberline {3.37.}{\ignorespaces Badanie zasi\k egu w pomieszczeniu, pr\'oba 1}}{\relax \fontsize  {10}{12}\selectfont  \abovedisplayskip 10\p@ plus2\p@ minus5\p@ \abovedisplayshortskip \z@ plus3\p@ \belowdisplayshortskip 6\p@ plus3\p@ minus3\p@ \belowdisplayskip \abovedisplayskip 40}}
\newlabel{Fig:wyk_c1}{{3.37}{\relax \fontsize  {10}{12}\selectfont  \abovedisplayskip 10\p@ plus2\p@ minus5\p@ \abovedisplayshortskip \z@ plus3\p@ \belowdisplayshortskip 6\p@ plus3\p@ minus3\p@ \belowdisplayskip \abovedisplayskip 40}}
\@writefile{lof}{\contentsline {figure}{\numberline {3.38.}{\ignorespaces Badanie zasi\k egu w pomieszczeniu, pr\'oba 2}}{\relax \fontsize  {10}{12}\selectfont  \abovedisplayskip 10\p@ plus2\p@ minus5\p@ \abovedisplayshortskip \z@ plus3\p@ \belowdisplayshortskip 6\p@ plus3\p@ minus3\p@ \belowdisplayskip \abovedisplayskip 40}}
\newlabel{Fig:wyk_c2}{{3.38}{\relax \fontsize  {10}{12}\selectfont  \abovedisplayskip 10\p@ plus2\p@ minus5\p@ \abovedisplayshortskip \z@ plus3\p@ \belowdisplayshortskip 6\p@ plus3\p@ minus3\p@ \belowdisplayskip \abovedisplayskip 40}}
\@writefile{lof}{\contentsline {figure}{\numberline {3.39.}{\ignorespaces Badanie zasi\k egu w pomieszczeniu, pr\'oba 3}}{\relax \fontsize  {10}{12}\selectfont  \abovedisplayskip 10\p@ plus2\p@ minus5\p@ \abovedisplayshortskip \z@ plus3\p@ \belowdisplayshortskip 6\p@ plus3\p@ minus3\p@ \belowdisplayskip \abovedisplayskip 41}}
\newlabel{Fig:wyk_c3}{{3.39}{\relax \fontsize  {10}{12}\selectfont  \abovedisplayskip 10\p@ plus2\p@ minus5\p@ \abovedisplayshortskip \z@ plus3\p@ \belowdisplayshortskip 6\p@ plus3\p@ minus3\p@ \belowdisplayskip \abovedisplayskip 41}}
\@writefile{lof}{\contentsline {figure}{\numberline {3.40.}{\ignorespaces Badanie zasi\k egu w pomieszczeniu, pr\'oba 4}}{\relax \fontsize  {10}{12}\selectfont  \abovedisplayskip 10\p@ plus2\p@ minus5\p@ \abovedisplayshortskip \z@ plus3\p@ \belowdisplayshortskip 6\p@ plus3\p@ minus3\p@ \belowdisplayskip \abovedisplayskip 42}}
\newlabel{Fig:wyk_c4}{{3.40}{\relax \fontsize  {10}{12}\selectfont  \abovedisplayskip 10\p@ plus2\p@ minus5\p@ \abovedisplayshortskip \z@ plus3\p@ \belowdisplayshortskip 6\p@ plus3\p@ minus3\p@ \belowdisplayskip \abovedisplayskip 42}}
\@writefile{lof}{\contentsline {figure}{\numberline {3.41.}{\ignorespaces Badanie zasi\k egu na zewn\k atrz, pr\'oba 1}}{\relax \fontsize  {10}{12}\selectfont  \abovedisplayskip 10\p@ plus2\p@ minus5\p@ \abovedisplayshortskip \z@ plus3\p@ \belowdisplayshortskip 6\p@ plus3\p@ minus3\p@ \belowdisplayskip \abovedisplayskip 42}}
\newlabel{Fig:wyk_d1}{{3.41}{\relax \fontsize  {10}{12}\selectfont  \abovedisplayskip 10\p@ plus2\p@ minus5\p@ \abovedisplayshortskip \z@ plus3\p@ \belowdisplayshortskip 6\p@ plus3\p@ minus3\p@ \belowdisplayskip \abovedisplayskip 42}}
\@writefile{lof}{\contentsline {figure}{\numberline {3.42.}{\ignorespaces Badanie zasi\k egu na zewn\k atrz, pr\'oba 2}}{\relax \fontsize  {10}{12}\selectfont  \abovedisplayskip 10\p@ plus2\p@ minus5\p@ \abovedisplayshortskip \z@ plus3\p@ \belowdisplayshortskip 6\p@ plus3\p@ minus3\p@ \belowdisplayskip \abovedisplayskip 43}}
\newlabel{Fig:wyk_d2}{{3.42}{\relax \fontsize  {10}{12}\selectfont  \abovedisplayskip 10\p@ plus2\p@ minus5\p@ \abovedisplayshortskip \z@ plus3\p@ \belowdisplayshortskip 6\p@ plus3\p@ minus3\p@ \belowdisplayskip \abovedisplayskip 43}}
\@writefile{lof}{\contentsline {figure}{\numberline {3.43.}{\ignorespaces Badanie zasi\k egu na zewn\k atrz, pr\'oba 3}}{\relax \fontsize  {10}{12}\selectfont  \abovedisplayskip 10\p@ plus2\p@ minus5\p@ \abovedisplayshortskip \z@ plus3\p@ \belowdisplayshortskip 6\p@ plus3\p@ minus3\p@ \belowdisplayskip \abovedisplayskip 44}}
\newlabel{Fig:wyk_d3}{{3.43}{\relax \fontsize  {10}{12}\selectfont  \abovedisplayskip 10\p@ plus2\p@ minus5\p@ \abovedisplayshortskip \z@ plus3\p@ \belowdisplayshortskip 6\p@ plus3\p@ minus3\p@ \belowdisplayskip \abovedisplayskip 44}}
\@writefile{toc}{\contentsline {subsection}{\numberline {3.2}Kalibracja urz\k adze\'n}{\relax \fontsize  {10}{12}\selectfont  \abovedisplayskip 10\p@ plus2\p@ minus5\p@ \abovedisplayshortskip \z@ plus3\p@ \belowdisplayshortskip 6\p@ plus3\p@ minus3\p@ \belowdisplayskip \abovedisplayskip 44}}
\@writefile{lot}{\contentsline {table}{\numberline {3.3.}{\ignorespaces Wyniki kalibracji IMU}}{\relax \fontsize  {10}{12}\selectfont  \abovedisplayskip 10\p@ plus2\p@ minus5\p@ \abovedisplayshortskip \z@ plus3\p@ \belowdisplayshortskip 6\p@ plus3\p@ minus3\p@ \belowdisplayskip \abovedisplayskip 45}}
\newlabel{tab:imu_kal}{{3.3}{\relax \fontsize  {10}{12}\selectfont  \abovedisplayskip 10\p@ plus2\p@ minus5\p@ \abovedisplayshortskip \z@ plus3\p@ \belowdisplayshortskip 6\p@ plus3\p@ minus3\p@ \belowdisplayskip \abovedisplayskip 45}}
\citation{tilt}
\@writefile{toc}{\contentsline {subsection}{\numberline {3.3}Badanie por\'ownawcze - filtr komplementarny}{\relax \fontsize  {10}{12}\selectfont  \abovedisplayskip 10\p@ plus2\p@ minus5\p@ \abovedisplayshortskip \z@ plus3\p@ \belowdisplayshortskip 6\p@ plus3\p@ minus3\p@ \belowdisplayskip \abovedisplayskip 46}}
\@writefile{lof}{\contentsline {figure}{\numberline {3.44.}{\ignorespaces Obr\'ot wok\'o\IeC {\l } osi x - roll}}{\relax \fontsize  {10}{12}\selectfont  \abovedisplayskip 10\p@ plus2\p@ minus5\p@ \abovedisplayshortskip \z@ plus3\p@ \belowdisplayshortskip 6\p@ plus3\p@ minus3\p@ \belowdisplayskip \abovedisplayskip 46}}
\newlabel{Fig:roll}{{3.44}{\relax \fontsize  {10}{12}\selectfont  \abovedisplayskip 10\p@ plus2\p@ minus5\p@ \abovedisplayshortskip \z@ plus3\p@ \belowdisplayshortskip 6\p@ plus3\p@ minus3\p@ \belowdisplayskip \abovedisplayskip 46}}
\newlabel{Eq:roll}{{3.11}{\relax \fontsize  {10}{12}\selectfont  \abovedisplayskip 10\p@ plus2\p@ minus5\p@ \abovedisplayshortskip \z@ plus3\p@ \belowdisplayshortskip 6\p@ plus3\p@ minus3\p@ \belowdisplayskip \abovedisplayskip 46}}
\citation{tilt}
\newlabel{Eq:roll}{{3.12}{\relax \fontsize  {10}{12}\selectfont  \abovedisplayskip 10\p@ plus2\p@ minus5\p@ \abovedisplayshortskip \z@ plus3\p@ \belowdisplayshortskip 6\p@ plus3\p@ minus3\p@ \belowdisplayskip \abovedisplayskip 47}}
\newlabel{Eq:pitch}{{3.13}{\relax \fontsize  {10}{12}\selectfont  \abovedisplayskip 10\p@ plus2\p@ minus5\p@ \abovedisplayshortskip \z@ plus3\p@ \belowdisplayshortskip 6\p@ plus3\p@ minus3\p@ \belowdisplayskip \abovedisplayskip 47}}
\@writefile{lof}{\contentsline {figure}{\numberline {3.45.}{\ignorespaces Obr\'ot wok\'o\IeC {\l } osi y - pitch}}{\relax \fontsize  {10}{12}\selectfont  \abovedisplayskip 10\p@ plus2\p@ minus5\p@ \abovedisplayshortskip \z@ plus3\p@ \belowdisplayshortskip 6\p@ plus3\p@ minus3\p@ \belowdisplayskip \abovedisplayskip 47}}
\newlabel{Fig:pitch}{{3.45}{\relax \fontsize  {10}{12}\selectfont  \abovedisplayskip 10\p@ plus2\p@ minus5\p@ \abovedisplayshortskip \z@ plus3\p@ \belowdisplayshortskip 6\p@ plus3\p@ minus3\p@ \belowdisplayskip \abovedisplayskip 47}}
\newlabel{Eq:pitch}{{3.14}{\relax \fontsize  {10}{12}\selectfont  \abovedisplayskip 10\p@ plus2\p@ minus5\p@ \abovedisplayshortskip \z@ plus3\p@ \belowdisplayshortskip 6\p@ plus3\p@ minus3\p@ \belowdisplayskip \abovedisplayskip 47}}
\newlabel{Eq:komplementarny}{{3.15}{\relax \fontsize  {10}{12}\selectfont  \abovedisplayskip 10\p@ plus2\p@ minus5\p@ \abovedisplayshortskip \z@ plus3\p@ \belowdisplayshortskip 6\p@ plus3\p@ minus3\p@ \belowdisplayskip \abovedisplayskip 48}}
\newlabel{Eq:pitch}{{3.16}{\relax \fontsize  {10}{12}\selectfont  \abovedisplayskip 10\p@ plus2\p@ minus5\p@ \abovedisplayshortskip \z@ plus3\p@ \belowdisplayshortskip 6\p@ plus3\p@ minus3\p@ \belowdisplayskip \abovedisplayskip 48}}
\citation{multiple_imu}
\@writefile{toc}{\contentsline {section}{Podsumowanie i wnioski ko\'ncowe}{\relax \fontsize  {10}{12}\selectfont  \abovedisplayskip 10\p@ plus2\p@ minus5\p@ \abovedisplayshortskip \z@ plus3\p@ \belowdisplayshortskip 6\p@ plus3\p@ minus3\p@ \belowdisplayskip \abovedisplayskip 49}}
\citation{swarm}
\@writefile{toc}{\contentsline {section}{Za\IeC {\l }\k aczniki}{\relax \fontsize  {10}{12}\selectfont  \abovedisplayskip 10\p@ plus2\p@ minus5\p@ \abovedisplayshortskip \z@ plus3\p@ \belowdisplayshortskip 6\p@ plus3\p@ minus3\p@ \belowdisplayskip \abovedisplayskip 51}}
\bibcite{imu_xsens}{1}
\bibcite{11dof}{2}
\bibcite{v2rocket}{3}
\bibcite{vonBraun}{4}
\bibcite{MPU-6050_karta}{5}
\bibcite{gyro_brit}{6}
\bibcite{fizyka}{7}
\bibcite{zzmp}{8}
\bibcite{zzmp_exp}{9}
\bibcite{horyzont_pilot}{10}
\bibcite{mems_ws}{11}
\bibcite{coriolis_vid}{12}
\bibcite{imu_video}{13}
\bibcite{mega328_karta}{14}
\bibcite{L3GD20_karta}{15}
\bibcite{LYPR540AH_karta}{16}
\bibcite{george_atwood_wiki}{17}
\bibcite{ADXL335_karta}{18}
\bibcite{LSM303_karta}{19}
\bibcite{abs_bosh}{20}
\bibcite{fizyka3}{21}
\bibcite{busola_wiki}{22}
\bibcite{promini_doc}{23}
\bibcite{nrf_karta}{24}
\bibcite{torex_karta}{25}
\bibcite{dzielnik_strona}{26}
\@writefile{toc}{\contentsline {section}{Literatura}{\relax \fontsize  {10}{12}\selectfont  \abovedisplayskip 10\p@ plus2\p@ minus5\p@ \abovedisplayshortskip \z@ plus3\p@ \belowdisplayshortskip 6\p@ plus3\p@ minus3\p@ \belowdisplayskip \abovedisplayskip 53}}
\bibcite{lipo_forbot}{27}
\bibcite{uno_doc}{28}
\bibcite{vis}{29}
\bibcite{f407_karta}{30}
\bibcite{f042_karta}{31}
\bibcite{lsm9ds0_karta}{32}
\bibcite{tilt}{33}
\bibcite{swarm}{34}
\bibcite{multiple_imu}{35}
